 [
    {
      "id" : 1,
      "name": "Printed T-Shirts",
      "price": 200,
      "imageUrl": "/products/1.png",
      "articul": 5801,
      "color": "Black",
      "isFavorite": false
    },
    {
      "id" : 2,
      "name": "Plain T-Shirt",
      "price": 250,
      "imageUrl": "/products/2.png",
      "articul": 6003,
      "color": "Brown",
      "isFavorite": false
    },
    {
      "id" : 3,
      "name": "Polo T-Shirt",
      "price": 220,
      "imageUrl": "/products/3.png",
      "articul": 6205,
      "color": "Blue",
      "isFavorite": false
    },
    {
      "id" : 4,
      "name": "Graphic Tee T-Shirt",
      "price": 100,
      "imageUrl": "/products/4.webp",
      "articul": 6407,
      "color": "LightGrey",
      "isFavorite": false
    },
    {
      "id" : 5,
      "name": "Polka Dot T-Shirt",
      "price": 120,
      "imageUrl": "/products/5.webp",
      "articul": 6409,
      "color": "Green",
      "isFavorite": false
    },
    {
      "id" : 6,
      "name": "Marble T-Shirt",
      "price": 180,
      "imageUrl": "/products/6.webp",
      "articul": 6611,
      "color": "Red",
      "isFavorite": false
    },
    {
      "id" : 7,
      "name": "Card T-Shirt",
      "price": 230,
      "imageUrl": "/products/7.webp",
      "articul": 6813,
      "color": "Khaki",
      "isFavorite": false
    },
    {
      "id" : 8,
      "name": "Manfinity T-Shirt",
      "price": 111,
      "imageUrl": "/products/8.webp",
      "articul": 7015,
      "color": "LightGrey",
      "isFavorite": false
    },
    {
      "id" : 9,
      "name": "Butterfly T-Shirt",
      "price": 123,
      "imageUrl": "/products/9.webp",
      "articul": 7217,
      "color": "Pink",
      "isFavorite": false
    },
    {
      "id" : 10,
      "name": "Figure Striped T-Shirt",
      "price": 412,
      "imageUrl": "/products/10.webp",
      "articul": 7419,
      "color": "DarkBlue",
      "isFavorite": false
    }
  ]